<?xml version="1.0" encoding="UTF-8" standalone="no"?>
<!-- Created with Inkscape (http://www.inkscape.org/) -->

<svg
   xmlns:dc="http://purl.org/dc/elements/1.1/"
   xmlns:cc="http://creativecommons.org/ns#"
   xmlns:rdf="http://www.w3.org/1999/02/22-rdf-syntax-ns#"
   xmlns:svg="http://www.w3.org/2000/svg"
   xmlns="http://www.w3.org/2000/svg"
   xmlns:sodipodi="http://sodipodi.sourceforge.net/DTD/sodipodi-0.dtd"
   xmlns:inkscape="http://www.inkscape.org/namespaces/inkscape"
   width="24"
   height="24"
   viewBox="0 0 6.35 6.349998"
   version="1.1"
   id="svg8"
   inkscape:version="0.92.1 r15371"
   sodipodi:docname="logo_chewy.svg">
  <defs
     id="defs2" />
  <sodipodi:namedview
     id="base"
     pagecolor="#ffffff"
     bordercolor="#666666"
     borderopacity="1.0"
     inkscape:pageopacity="0.0"
     inkscape:pageshadow="2"
     inkscape:zoom="11.2"
     inkscape:cx="12.4857"
     inkscape:cy="17.42779"
     inkscape:document-units="px"
     inkscape:current-layer="layer1"
     showgrid="false"
     inkscape:window-width="1366"
     inkscape:window-height="705"
     inkscape:window-x="-8"
     inkscape:window-y="-8"
     inkscape:window-maximized="1"
     units="px" />
  <metadata
     id="metadata5">
    <rdf:RDF>
      <cc:Work
         rdf:about="">
        <dc:format>image/svg+xml</dc:format>
        <dc:type
           rdf:resource="http://purl.org/dc/dcmitype/StillImage" />
        <dc:title></dc:title>
      </cc:Work>
    </rdf:RDF>
  </metadata>
  <g
     inkscape:label="Layer 1"
     inkscape:groupmode="layer"
     id="layer1"
     transform="translate(0,-290.6501)">
    <rect
       style="opacity:1;fill:#ff00ff;fill-opacity:0.0112782;fill-rule:evenodd;stroke:none;stroke-width:0.0760298;stroke-linecap:butt;stroke-linejoin:round;stroke-miterlimit:4;stroke-dasharray:none;stroke-dashoffset:0;stroke-opacity:1"
       id="rect4538"
       width="6.496001"
       height="5.244722"
       x="-0.02348863"
       y="291.0369" />
    <g
       id="g4544"
       transform="matrix(0.040319,0,0,0.040319,13.62776,290.7655)">
      <g
         transform="translate(-168.7968,21.9161)"
         style="fill:#128ced;fill-opacity:1"
         id="g4536">
        <path
           inkscape:connector-curvature="0"
           style="fill:#128ced;fill-opacity:1;stroke-width:0.2645833"
           d="m -47.33847,102.2861 c -2.5059,-0.6279 -3.6294,-1.7782 -3.6294,-3.716 0,-0.96403 0.1549,-1.45243 0.6389,-2.01482 0.6036,-0.70126 0.7484,-0.73951 2.615,-0.69065 1.2851,0.0337 2.1416,-0.0693 2.4495,-0.29448 0.5287,-0.38655 0.7503,0.98137 -2.1173,-13.06914 -1.6428,-8.04932 -1.5762,-9.58456 0.4631,-10.67594 1.5321,-0.81994 3.9744,-0.69564 5.0454,0.2568 0.8998,0.80016 1.1637,1.94165 1.8774,8.12062 0.3867,3.34698 0.7896,6.30727 0.8954,6.57842 0.1383,0.35438 0.8168,-1.1226 2.4127,-5.2523 1.2212,-3.15992 2.5633,-6.21866 2.9824,-6.79723 1.3424,-1.85311 3.0639,-2.16701 5.2509,-0.95747 1.2013,0.6644 1.8283,1.71768 1.8283,3.07144 0,1.45749 -9.7064,20.99718 -11.3534,22.85525 -1.6125,1.8192 -3.5372,2.6757 -6.2128,2.7648 -1.1799,0.039 -2.5956,-0.041 -3.1461,-0.1793 z"
           id="path4530" />
        <path
           inkscape:connector-curvature="0"
           style="fill:#128ced;fill-opacity:1;stroke-width:0.9999998"
           d="m -471.3594,244.6152 c -3.1559,0.019 -6.1111,0.7743 -8.3242,2.2657 -6.5004,4.3805 -6.7025,5.2585 -10.4473,45.2714 -1.8909,20.2083 -3.6778,36.9821 -3.9726,37.2754 -0.2948,0.2931 -0.5313,-0.2092 -0.5313,-1.1172 0,-0.9079 -1.2651,-3.0656 -2.8105,-4.7949 -2.2749,-2.5461 -3.7837,-3.2378 -7.9356,-3.6367 l -5.1269,-0.4941 -7.9043,7.5312 c -8.8108,8.393 -13.1402,10.3499 -19.2559,8.7031 -7.5443,-2.0315 -12.3423,-11.108 -12.4179,-23.4921 -0.041,-6.7227 0.3073,-8.4975 2.1816,-11.125 5.1337,-7.197 13.6759,-8.2101 24.2695,-2.875 9.1359,4.6004 13.0767,4.6227 17.5996,0.1 3.0085,-3.0087 3.4004,-4.0079 3.4004,-8.6836 0,-4.9996 -0.258,-5.5312 -4.7851,-9.8946 -6.3595,-6.1298 -13.496,-8.4493 -25.7149,-8.3593 -21.5803,0.159 -39.059,9.565 -46.7265,25.1484 -3.1015,6.307 -3.2559,7.2292 -3.2559,17.6719 0.014,8.8239 0.4714,12.3406 2.2969,17.664 4.3446,12.6684 12.4538,21.4715 23.9023,25.9454 7.4737,2.9204 23.4705,3.1689 33.2032,0.5156 13.0454,-3.5565 23.3464,-10.5762 27.3183,-18.6153 l 1.7266,-3.4921 -0.1309,8.6523 c -0.1546,10.0213 1.4836,13.9622 7.1934,17.2969 4.8691,2.8433 14.7617,2.839 18.582,-0.01 6.0193,-4.4883 6.438,-5.8165 8.4453,-26.7519 1.0333,-10.7788 2.531,-21.1576 3.3281,-23.0645 3.8151,-9.1315 16.9993,-9.6554 21.1817,-0.8418 1.5405,3.2425 1.5425,4.7458 0.037,21.1055 -0.8916,9.6877 -1.6074,19.6383 -1.6074,22.1133 0.018,5.9654 2.9491,10.6034 8.2754,13.0918 v 0 c 3.0562,1.4268 5.7887,1.8831 9.8555,1.6386 11.3631,-0.6835 14.0538,-5.164 16.039,-26.7148 l 1.334,-14.4844 3.2012,4.9844 c 13.2144,20.5768 34.5633,25.9173 57.5234,14.3886 10.0289,-5.0354 19.4351,-11.7682 25.3164,-18.121 3.0027,-3.2431 5.459,-6.3212 5.459,-6.8399 0,-3.3497 2.4322,1.1088 8.5352,15.6465 4.6462,11.0669 8.1746,17.9743 10.6016,20.75 l 3.6386,4.1621 7.8614,-0.035 c 4.324,-0.019 9.5376,-0.3734 11.5839,-0.7891 4.5761,-0.9298 9.609,-5.0247 11.377,-9.2559 0.729,-1.7448 2.5028,-11.8903 3.9433,-22.5449 1.4408,-10.6545 2.767,-19.5189 2.9473,-19.6992 0.1802,-0.1803 0.6384,0.7191 1.0156,1.998 0.3775,1.279 3.1766,10.1987 6.2207,19.8223 4.8217,15.2428 6.0053,17.9701 9.1934,21.1582 4.4395,4.4395 9.4277,5.4544 19.7539,4.0234 8.2711,-1.1461 11.5286,-2.974 13.791,-7.7421 2.3679,-4.9899 14.657,-57.7619 15.2383,-65.4375 0.429,-5.6591 0.1856,-6.9528 -1.875,-10 -2.8278,-4.1814 -8.0179,-7.0031 -12.8262,-6.9766 -5.0211,0.029 -11.6115,3.3187 -13.3203,6.6484 -0.7984,1.5558 -2.8796,13.8432 -4.625,27.3047 -1.7454,13.4615 -3.3029,24.6057 -3.4609,24.7637 -0.1581,0.1581 -3.3274,-9.057 -7.043,-20.4766 -10.8263,-33.2742 -10.8193,-33.2636 -22.9824,-33.2636 -8.3079,0 -14.133,2.2593 -16.2148,6.2851 -0.9398,1.8174 -2.7368,12.5024 -4.4747,26.625 -1.5966,12.9747 -3.038,24.2649 -3.205,25.0899 -0.1671,0.8249 -3.55,-8.4001 -7.5157,-20.5 -8.535,-26.042 -9.7446,-28.9978 -12.6543,-30.9043 -5.4659,-3.5814 -14.9015,-2.7391 -20.1816,1.8027 l -2.709,2.3301 -1.9062,-3.8555 c -2.7403,-5.5384 -11.7245,-13.3355 -18.461,-16.0234 -8.6311,-3.4437 -23.1562,-3.2382 -32.6152,0.4629 -13.9344,5.4522 -26.5589,15.4189 -31.625,24.9687 l -2.3399,4.4102 -2.9921,-3.4102 c -4.224,-4.8109 -11.525,-8.1902 -20.4825,-9.4824 -10.2372,-1.4769 -17.3421,0.4565 -23.8984,6.5 l -4.5527,4.1953 0.5937,-3.9961 c 0.3266,-2.1982 1.0972,-9.6977 1.7129,-16.6641 1.0439,-11.8067 0.9871,-12.9667 -0.8418,-17.1015 -1.5182,-3.4323 -2.9671,-4.9219 -6.4004,-6.584 -3.0172,-1.4607 -6.3733,-2.1788 -9.5293,-2.1602 z m 109.4942,38.1094 c 2.3568,-0.04 4.6241,0.5056 6.5351,1.7656 2.7524,1.8149 6.2403,5.9559 5.5469,6.586 -0.1936,0.176 -6.0297,3.522 -12.9707,7.4355 -6.941,3.9135 -12.87,7.1153 -13.1738,7.1153 -1.2063,0 -2.8854,-7.3577 -2.3223,-10.1739 1.4425,-7.2123 9.3142,-12.6076 16.3848,-12.7285 z m 41.0097,10.0742 c 0.7512,-0.1322 1.0822,1.1016 2.041,4.4453 1.5552,5.423 1.5643,5.3829 -1.2851,5.3829 -3.3529,0 -8.6249,4.8533 -13.3692,12.3066 -4.7502,7.4628 -8.4216,11.0682 -13.3828,13.1406 -4.5007,1.8802 -8.2814,1.9229 -12.2832,0.1367 -2.9371,-1.311 -9.2714,-7.2415 -8.4277,-7.8906 0.2349,-0.1807 9.8777,-5.6337 21.4277,-12.1172 11.55,-6.4835 22.0107,-12.7182 23.2461,-13.8535 0.9806,-0.9012 1.5826,-1.4714 2.0332,-1.5508 z"
           transform="scale(0.2645833)"
           id="path4528" />
      </g>
      <path
         inkscape:connector-curvature="0"
         id="path4520"
         d="m -260.5781,82.37311 c -3.2735,-4.6419 -7.6633,-9.05566 -15.3647,-15.4486 -9.2551,-7.6826 -12.2153,-11.28374 -13.9159,-16.92883 -0.6237,-2.07037 -0.7207,-2.86483 -0.7429,-6.08542 -0.028,-4.0335 0.19,-5.04476 1.767,-8.20209 1.184,-2.37043 4.2929,-5.35718 6.8554,-6.58601 6.425,-3.08104 13.43,-2.03126 18.5879,2.78567 1.0664,0.9958 2.3991,2.52512 2.9618,3.39847 0.5627,0.87334 1.1011,1.5889 1.1964,1.5902 0.095,0 0.4851,-0.52975 0.8662,-1.18007 1.629,-2.77962 5.2716,-5.87727 8.4927,-7.22212 3.0628,-1.27876 7.5998,-1.42632 10.973,-0.35685 4.8708,1.54424 8.9198,5.51976 10.394,10.20557 0.773,2.45658 0.8178,8.31323 0.084,10.99119 -1.5939,5.8189 -4.5918,9.65845 -12.9917,16.63933 -8.8962,7.3933 -12.0645,10.51319 -15.9499,15.70598 -0.9527,1.27331 -1.8082,2.3151 -1.9011,2.3151 -0.093,0 -0.6834,-0.72969 -1.3123,-1.62152 z"
         style="fill:#ff2c2c;fill-opacity:1;stroke-width:0.2645833" />
    </g>
  </g>
</svg>
