<?xml version="1.0" encoding="UTF-8" standalone="no"?>
<!-- Created with Inkscape (http://www.inkscape.org/) -->

<svg
   xmlns:dc="http://purl.org/dc/elements/1.1/"
   xmlns:cc="http://creativecommons.org/ns#"
   xmlns:rdf="http://www.w3.org/1999/02/22-rdf-syntax-ns#"
   xmlns:svg="http://www.w3.org/2000/svg"
   xmlns="http://www.w3.org/2000/svg"
   xmlns:xlink="http://www.w3.org/1999/xlink"
   xmlns:sodipodi="http://sodipodi.sourceforge.net/DTD/sodipodi-0.dtd"
   xmlns:inkscape="http://www.inkscape.org/namespaces/inkscape"
   width="384"
   height="128"
   viewBox="0 0 101.6 33.866668"
   version="1.1"
   id="svg4960"
   inkscape:version="0.92.1 r15371"
   sodipodi:docname="simplepet_btn_play_spritesheet.svg"
   inkscape:export-filename="C:\Users\Lupek\Documents\SourceTreeRepos\web-portfolio\RdmpPractice\images\simplepet_btn_food_spritesheet.png"
   inkscape:export-xdpi="96"
   inkscape:export-ydpi="96">
  <defs
     id="defs4954" />
  <sodipodi:namedview
     id="base"
     pagecolor="#ffffff"
     bordercolor="#666666"
     borderopacity="1.0"
     inkscape:pageopacity="0.0"
     inkscape:pageshadow="2"
     inkscape:zoom="2.8"
     inkscape:cx="127.20354"
     inkscape:cy="62.240787"
     inkscape:document-units="px"
     inkscape:current-layer="layer1"
     showgrid="false"
     units="px"
     inkscape:window-width="1920"
     inkscape:window-height="1017"
     inkscape:window-x="-8"
     inkscape:window-y="-8"
     inkscape:window-maximized="1" />
  <metadata
     id="metadata4957">
    <rdf:RDF>
      <cc:Work
         rdf:about="">
        <dc:format>image/svg+xml</dc:format>
        <dc:type
           rdf:resource="http://purl.org/dc/dcmitype/StillImage" />
        <dc:title />
      </cc:Work>
    </rdf:RDF>
  </metadata>
  <g
     inkscape:label="Layer 1"
     inkscape:groupmode="layer"
     id="layer1"
     transform="translate(0,-263.13332)">
    <path
       d="m 17.78125,42.220703 c -3.143217,0 -5.736328,2.593111 -5.736328,5.736328 v 22.394531 c 0,3.143219 2.593111,5.736329 5.736328,5.736329 h 22.394531 c 3.143218,0 5.736328,-2.593111 5.736328,-5.736329 V 47.957031 c 0,-3.143216 -2.59311,-5.736328 -5.736328,-5.736328 z"
       inkscape:href="#path4585-7"
       id="path4591-6"
       style="opacity:1;fill:#1a1a1a;fill-opacity:1;stroke:none;stroke-width:0.26865107"
       xlink:href="#path4585-7"
       inkscape:original="M 5.7363281 265.11719 C 3.6571577 265.11719 1.984375 266.79192 1.984375 268.87109 L 1.984375 291.26367 C 1.984375 293.34284 3.6571577 295.01563 5.7363281 295.01562 L 28.130859 295.01562 C 30.21003 295.01562 31.882812 293.34284 31.882812 291.26367 L 31.882812 268.87109 C 31.882812 266.79192 30.21003 265.11719 28.130859 265.11719 L 5.7363281 265.11719 z "
       inkscape:radius="1.9838215"
       sodipodi:type="inkscape:offset"
       transform="translate(21.821485,220.91236)" />
    <path
       d="m 17.78125,44.205078 c -2.07917,0 -3.751953,1.672783 -3.751953,3.751953 v 22.394531 c 0,2.079171 1.672783,3.751954 3.751953,3.751954 h 22.394531 c 2.079171,0 3.751953,-1.672783 3.751953,-3.751954 V 47.957031 c 0,-2.07917 -1.672782,-3.751953 -3.751953,-3.751953 z"
       inkscape:href="#rect4575-6"
       id="path4589-3"
       style="opacity:1;fill:#ffe680;fill-opacity:1;stroke:none;stroke-width:0.26865107"
       xlink:href="#rect4575-6"
       inkscape:original="M 5.7363281 265.11719 C 3.6571577 265.11719 1.984375 266.79192 1.984375 268.87109 L 1.984375 291.26367 C 1.984375 293.34284 3.6571577 295.01562 5.7363281 295.01562 L 28.130859 295.01562 C 30.21003 295.01562 31.882812 293.34284 31.882812 291.26367 L 31.882812 268.87109 C 31.882812 266.79192 30.21003 265.11719 28.130859 265.11719 L 5.7363281 265.11719 z "
       inkscape:radius="0"
       sodipodi:type="inkscape:offset"
       transform="translate(21.820931,220.91204)"
       inkscape:export-xdpi="96"
       inkscape:export-ydpi="96" />
    <path
       sodipodi:type="inkscape:offset"
       inkscape:radius="0"
       inkscape:original="M 5.7363281 265.11719 C 3.6571577 265.11719 1.984375 266.79192 1.984375 268.87109 L 1.984375 291.26367 C 1.984375 293.34284 3.6571577 295.01562 5.7363281 295.01562 L 28.130859 295.01562 C 30.21003 295.01562 31.882812 293.34284 31.882812 291.26367 L 31.882812 268.87109 C 31.882812 266.79192 30.21003 265.11719 28.130859 265.11719 L 5.7363281 265.11719 z "
       xlink:href="#rect4575-6"
       style="opacity:1;fill:#241f1c;fill-opacity:1;stroke:none;stroke-width:0.26865107"
       id="path4593-7"
       inkscape:href="#rect4575-6"
       d="m 17.78125,44.205078 c -2.07917,0 -3.751953,1.672783 -3.751953,3.751953 v 22.394531 c 0,2.079171 1.672783,3.751954 3.751953,3.751954 h 22.394531 c 2.079171,0 3.751953,-1.672783 3.751953,-3.751954 V 47.957031 c 0,-2.07917 -1.672782,-3.751953 -3.751953,-3.751953 z"
       transform="translate(21.820931,220.91204)"
       inkscape:export-xdpi="96"
       inkscape:export-ydpi="96" />
    <g
       id="g5088"
       transform="translate(-47.615251,187.44619)"
       inkscape:export-filename="C:\Users\Lupek\Pictures\_MangaStudio\2018\Pet Website\button_base.png"
       inkscape:export-xdpi="96"
       inkscape:export-ydpi="96">
      <path
         transform="translate(35.570329,33.466169)"
         sodipodi:type="inkscape:offset"
         inkscape:radius="1.9838215"
         inkscape:original="M 17.78125 44.205078 C 15.70208 44.205078 14.029297 45.877861 14.029297 47.957031 L 14.029297 70.351562 C 14.029297 72.430734 15.70208 74.103516 17.78125 74.103516 L 40.175781 74.103516 C 42.254952 74.103516 43.927734 72.430733 43.927734 70.351562 L 43.927734 47.957031 C 43.927734 45.877861 42.254952 44.205078 40.175781 44.205078 L 17.78125 44.205078 z "
         xlink:href="#path4585"
         style="opacity:1;fill:#1a1a1a;fill-opacity:1;stroke:none;stroke-width:0.26865107"
         id="path5079"
         inkscape:href="#path4585"
         d="m 17.78125,42.220703 c -3.143217,0 -5.736328,2.593111 -5.736328,5.736328 v 22.394531 c 0,3.143219 2.593111,5.736329 5.736328,5.736329 h 22.394531 c 3.143218,0 5.736328,-2.593111 5.736328,-5.736329 V 47.957031 c 0,-3.143216 -2.59311,-5.736328 -5.736328,-5.736328 z"
         inkscape:export-xdpi="96"
         inkscape:export-ydpi="96" />
      <rect
         ry="3.7530153"
         y="77.670952"
         x="49.599335"
         height="29.899023"
         width="29.899023"
         id="rect5081"
         style="opacity:1;fill:#ffe680;fill-opacity:1;stroke:none;stroke-width:0.26865107"
         inkscape:export-xdpi="96"
         inkscape:export-ydpi="96" />
      <rect
         style="opacity:1;fill:#ffcc00;fill-opacity:1;stroke:none;stroke-width:0.24064006"
         id="rect5083"
         width="26.78159"
         height="26.78159"
         x="51.158051"
         y="79.229675"
         ry="3.3617055"
         inkscape:export-xdpi="96"
         inkscape:export-ydpi="96" />
    </g>
    <g
       id="g7540"
       transform="rotate(30,-296.07407,87.811101)">
      <g
         transform="translate(0.56126601)"
         id="g7520">
        <path
           d="m 67.343844,101.71111 a 1.7517495,1.7517495 0 0 1 -1.730746,1.75163 1.7517495,1.7517495 0 0 1 -1.772249,-1.70962 1.7517495,1.7517495 0 0 1 1.688246,-1.792623 1.7517495,1.7517495 0 0 1 1.812735,1.666633"
           sodipodi:open="true"
           sodipodi:end="6.2352237"
           sodipodi:start="0"
           sodipodi:ry="1.7517495"
           sodipodi:rx="1.7517495"
           sodipodi:cy="101.71111"
           sodipodi:cx="65.592094"
           sodipodi:type="arc"
           id="path6063"
           style="opacity:1;fill:#ffdd55;fill-opacity:1;stroke:#000000;stroke-width:0.37028438;stroke-linecap:round;stroke-miterlimit:4;stroke-dasharray:none;stroke-opacity:1" />
        <path
           style="opacity:1;fill:#ffdd55;fill-opacity:1;stroke:#000000;stroke-width:0.37028438;stroke-linecap:round;stroke-miterlimit:4;stroke-dasharray:none;stroke-opacity:1"
           id="path6065"
           sodipodi:type="arc"
           sodipodi:cx="71.467834"
           sodipodi:cy="101.71111"
           sodipodi:rx="1.7517495"
           sodipodi:ry="1.7517495"
           sodipodi:start="0"
           sodipodi:end="6.2352237"
           sodipodi:open="true"
           d="m 73.219584,101.71111 a 1.7517495,1.7517495 0 0 1 -1.730746,1.75163 1.7517495,1.7517495 0 0 1 -1.772249,-1.70962 1.7517495,1.7517495 0 0 1 1.688247,-1.792623 1.7517495,1.7517495 0 0 1 1.812734,1.666633" />
      </g>
      <g
         transform="matrix(1.2019567,0,0,1.2019567,-14.180775,-21.492208)"
         id="g6189">
        <path
           style="fill:#ffdd55;stroke:#000000;stroke-width:0.21289317;stroke-linecap:butt;stroke-linejoin:miter;stroke-miterlimit:4;stroke-dasharray:none;stroke-opacity:1"
           d="m 73.596272,102.12079 c 0,0 1.5556,-0.41621 2.352977,-0.43451 1.084767,-0.0249 2.22452,0.86413 3.224784,0.44364 0.831452,-0.34952 1.611947,-2.173229 1.611947,-2.173229 0,0 -1.209296,1.306309 -2.024715,1.403409 -1.038431,0.12365 -1.883962,-1.04398 -2.926034,-1.1318 -0.723153,-0.0609 -2.133347,0.43452 -2.133347,0.43452 z"
           id="path6067"
           inkscape:connector-curvature="0"
           sodipodi:nodetypes="caacaacc" />
        <path
           sodipodi:nodetypes="cc"
           inkscape:connector-curvature="0"
           id="path6091"
           d="m 75.183995,100.27232 c 0.505155,0.0366 0.521531,0.65934 0.309055,0.9406"
           style="fill:none;stroke:#000000;stroke-width:0.0709644px;stroke-linecap:round;stroke-linejoin:miter;stroke-opacity:1" />
        <path
           style="fill:none;stroke:#000000;stroke-width:0.0709644px;stroke-linecap:round;stroke-linejoin:miter;stroke-opacity:1"
           d="m 76.138034,100.35294 c 0.505155,0.0366 0.521531,0.65934 0.309055,0.9406"
           id="path6093"
           inkscape:connector-curvature="0"
           sodipodi:nodetypes="cc" />
        <path
           sodipodi:nodetypes="cc"
           inkscape:connector-curvature="0"
           id="path6095"
           d="m 76.957606,100.72532 c 0.25723,0.02 0.265568,0.40278 0.157373,0.55636"
           style="fill:none;stroke:#000000;stroke-width:0.0709644px;stroke-linecap:round;stroke-linejoin:miter;stroke-opacity:1" />
      </g>
      <g
         transform="matrix(1.2019567,0,0,1.2019567,-13.759825,-20.930942)"
         id="g6179">
        <path
           style="opacity:1;fill:#000000;fill-opacity:1;stroke:#000000;stroke-width:0.31038037;stroke-linecap:round;stroke-miterlimit:4;stroke-dasharray:none;stroke-opacity:1"
           d="m 274.44727,340.9082 a 6.3472429,6.3472429 0 0 0 -5.65235,3.47461 6.3472429,6.3472429 0 0 0 2.79102,8.53321 6.3472429,6.3472429 0 0 0 8.53125,-2.78907 6.3472429,6.3472429 0 0 0 -2.78907,-8.5332 6.3472429,6.3472429 0 0 0 -2.88085,-0.68555 z m 0.004,3.03907 a 3.3067329,3.3067329 0 0 1 1.50195,0.35742 3.3067329,3.3067329 0 0 1 1.45313,4.44531 3.3067329,3.3067329 0 0 1 -4.44531,1.45312 3.3067329,3.3067329 0 0 1 -1.45313,-4.44531 3.3067329,3.3067329 0 0 1 2.94336,-1.81054 z"
           transform="scale(0.26458333)"
           id="circle6073"
           inkscape:connector-curvature="0" />
        <path
           style="opacity:1;fill:#000000;fill-opacity:1;stroke:#000000;stroke-width:0.08212147;stroke-linecap:round;stroke-miterlimit:4;stroke-dasharray:none;stroke-opacity:1"
           d="m 74.99257,91.377279 a 1.6793747,1.6793747 0 0 0 -1.495514,0.919323 1.6793747,1.6793747 0 0 0 0.737938,2.257743 1.6793747,1.6793747 0 0 0 2.257745,-0.737939 1.6793747,1.6793747 0 0 0 -0.737941,-2.257742 1.6793747,1.6793747 0 0 0 -0.762228,-0.181385 z m 0.001,0.804084 a 0.8749064,0.8749064 0 0 1 0.396875,0.09457 0.8749064,0.8749064 0 0 1 0.384474,1.176157 0.8749064,0.8749064 0 0 1 -1.176158,0.384471 0.8749064,0.8749064 0 0 1 -0.384471,-1.176155 0.8749064,0.8749064 0 0 1 0.77928,-0.479041 z"
           id="circle6075"
           inkscape:connector-curvature="0" />
        <rect
           style="opacity:1;fill:#000000;fill-opacity:1;stroke:#000000;stroke-width:0.08212148;stroke-linecap:round;stroke-miterlimit:4;stroke-dasharray:none;stroke-opacity:1"
           id="rect6077"
           width="1.4044781"
           height="2.9860058"
           x="106.87996"
           y="49.927509"
           transform="rotate(26.896689)" />
      </g>
      <g
         transform="translate(4.0264384,-2.0697113)"
         id="g7516">
        <path
           sodipodi:nodetypes="ccac"
           inkscape:connector-curvature="0"
           id="path6069"
           d="m 58.881923,104.35991 12.031785,-0.17909 c 1.76424,-5.544134 0.401602,-8.806769 -2.082526,-9.887035 -3.980813,-1.731118 -11.798098,5.097225 -9.949259,10.066125 z"
           style="fill:#000000;stroke:none;stroke-width:0.10811336px;stroke-linecap:butt;stroke-linejoin:miter;stroke-opacity:1" />
        <path
           sodipodi:nodetypes="cccc"
           inkscape:connector-curvature="0"
           id="path6071"
           d="m 62.584725,96.82902 c -0.415128,-1.087119 -4.229186,2.945995 -5.133174,6.26601 0.973323,2.00623 0.563635,1.02079 4.552552,1.15381 z"
           style="fill:#000000;stroke:#000000;stroke-width:0.10811336px;stroke-linecap:butt;stroke-linejoin:miter;stroke-opacity:1" />
        <path
           d="m 61.363342,101.18295 a 0.57937574,0.57937574 0 0 1 -0.572429,0.57934 0.57937574,0.57937574 0 0 1 -0.586156,-0.56544 0.57937574,0.57937574 0 0 1 0.558373,-0.5929 0.57937574,0.57937574 0 0 1 0.599546,0.55123"
           sodipodi:open="true"
           sodipodi:end="6.2352237"
           sodipodi:start="0"
           sodipodi:ry="0.57937574"
           sodipodi:rx="0.57937574"
           sodipodi:cy="101.18295"
           sodipodi:cx="60.783966"
           sodipodi:type="arc"
           id="path6085"
           style="opacity:1;fill:#ffdd55;fill-opacity:1;stroke:#000000;stroke-width:0.15454331;stroke-linecap:round;stroke-miterlimit:4;stroke-dasharray:none;stroke-opacity:1" />
        <path
           sodipodi:nodetypes="cc"
           inkscape:connector-curvature="0"
           id="path6087"
           d="m 60.927342,98.963561 c 0.849656,-3.016217 4.167292,-2.262382 2.493988,1.783119"
           style="fill:none;stroke:#ffdd55;stroke-width:0.10811336px;stroke-linecap:butt;stroke-linejoin:miter;stroke-opacity:1" />
        <path
           style="fill:#000000;stroke:none;stroke-width:0.10811336px;stroke-linecap:butt;stroke-linejoin:miter;stroke-opacity:1"
           d="M 61.541554,97.34276 C 60.89968,94.942958 58.411553,96.936123 59.300957,99.655125"
           id="path6089"
           inkscape:connector-curvature="0"
           sodipodi:nodetypes="cc" />
      </g>
    </g>
    <g
       id="g7621"
       transform="translate(20.117564,187.44619)"
       inkscape:export-filename="C:\Users\Lupek\Pictures\_MangaStudio\2018\Pet Website\button_base.png"
       inkscape:export-xdpi="96"
       inkscape:export-ydpi="96">
      <path
         transform="translate(35.570329,33.466169)"
         sodipodi:type="inkscape:offset"
         inkscape:radius="1.9838215"
         inkscape:original="M 17.78125 44.205078 C 15.70208 44.205078 14.029297 45.877861 14.029297 47.957031 L 14.029297 70.351562 C 14.029297 72.430734 15.70208 74.103516 17.78125 74.103516 L 40.175781 74.103516 C 42.254952 74.103516 43.927734 72.430733 43.927734 70.351562 L 43.927734 47.957031 C 43.927734 45.877861 42.254952 44.205078 40.175781 44.205078 L 17.78125 44.205078 z "
         xlink:href="#path4585"
         style="opacity:1;fill:#1a1a1a;fill-opacity:1;stroke:none;stroke-width:0.26865107"
         id="path7615"
         inkscape:href="#path4585"
         d="m 17.78125,42.220703 c -3.143217,0 -5.736328,2.593111 -5.736328,5.736328 v 22.394531 c 0,3.143219 2.593111,5.736329 5.736328,5.736329 h 22.394531 c 3.143218,0 5.736328,-2.593111 5.736328,-5.736329 V 47.957031 c 0,-3.143216 -2.59311,-5.736328 -5.736328,-5.736328 z"
         inkscape:export-xdpi="96"
         inkscape:export-ydpi="96" />
      <rect
         ry="3.7530153"
         y="77.670952"
         x="49.599335"
         height="29.899023"
         width="29.899023"
         id="rect7617"
         style="opacity:1;fill:#ffe680;fill-opacity:1;stroke:none;stroke-width:0.26865107"
         inkscape:export-xdpi="96"
         inkscape:export-ydpi="96" />
      <rect
         style="opacity:1;fill:#ffcc00;fill-opacity:1;stroke:none;stroke-width:0.24064006"
         id="rect7619"
         width="26.78159"
         height="26.78159"
         x="51.158051"
         y="79.229675"
         ry="3.3617055"
         inkscape:export-xdpi="96"
         inkscape:export-ydpi="96" />
    </g>
    <g
       inkscape:export-ydpi="96"
       inkscape:export-xdpi="96"
       inkscape:export-filename="C:\Users\Lupek\Pictures\_MangaStudio\2018\Pet Website\button_base.png"
       transform="translate(-13.748844,187.44619)"
       id="g7573">
      <path
         inkscape:export-ydpi="96"
         inkscape:export-xdpi="96"
         d="m 17.78125,42.220703 c -3.143217,0 -5.736328,2.593111 -5.736328,5.736328 v 22.394531 c 0,3.143219 2.593111,5.736329 5.736328,5.736329 h 22.394531 c 3.143218,0 5.736328,-2.593111 5.736328,-5.736329 V 47.957031 c 0,-3.143216 -2.59311,-5.736328 -5.736328,-5.736328 z"
         inkscape:href="#path4585"
         id="path7567"
         style="opacity:1;fill:#1a1a1a;fill-opacity:1;stroke:none;stroke-width:0.26865107"
         xlink:href="#path4585"
         inkscape:original="M 17.78125 44.205078 C 15.70208 44.205078 14.029297 45.877861 14.029297 47.957031 L 14.029297 70.351562 C 14.029297 72.430734 15.70208 74.103516 17.78125 74.103516 L 40.175781 74.103516 C 42.254952 74.103516 43.927734 72.430733 43.927734 70.351562 L 43.927734 47.957031 C 43.927734 45.877861 42.254952 44.205078 40.175781 44.205078 L 17.78125 44.205078 z "
         inkscape:radius="1.9838215"
         sodipodi:type="inkscape:offset"
         transform="translate(35.570329,33.466169)" />
      <rect
         inkscape:export-ydpi="96"
         inkscape:export-xdpi="96"
         style="opacity:1;fill:#ffe680;fill-opacity:1;stroke:none;stroke-width:0.26865107"
         id="rect7569"
         width="29.899023"
         height="29.899023"
         x="49.599335"
         y="77.670952"
         ry="3.7530153" />
      <rect
         inkscape:export-ydpi="96"
         inkscape:export-xdpi="96"
         ry="3.3617055"
         y="79.229675"
         x="51.158051"
         height="26.78159"
         width="26.78159"
         id="rect7571"
         style="opacity:1;fill:#ffcc00;fill-opacity:1;stroke:none;stroke-width:0.24064006" />
    </g>
    <g
       transform="rotate(30,-279.14087,151.00668)"
       id="g10024">
      <g
         id="g9992"
         transform="translate(0.56126601)">
        <path
           style="opacity:1;fill:#ffdd55;fill-opacity:1;stroke:#000000;stroke-width:0.37028438;stroke-linecap:round;stroke-miterlimit:4;stroke-dasharray:none;stroke-opacity:1"
           id="path9988"
           sodipodi:type="arc"
           sodipodi:cx="65.592094"
           sodipodi:cy="101.71111"
           sodipodi:rx="1.7517495"
           sodipodi:ry="1.7517495"
           sodipodi:start="0"
           sodipodi:end="6.2352237"
           sodipodi:open="true"
           d="m 67.343844,101.71111 a 1.7517495,1.7517495 0 0 1 -1.730746,1.75163 1.7517495,1.7517495 0 0 1 -1.772249,-1.70962 1.7517495,1.7517495 0 0 1 1.688246,-1.792623 1.7517495,1.7517495 0 0 1 1.812735,1.666633" />
        <path
           d="m 73.219584,101.71111 a 1.7517495,1.7517495 0 0 1 -1.730746,1.75163 1.7517495,1.7517495 0 0 1 -1.772249,-1.70962 1.7517495,1.7517495 0 0 1 1.688247,-1.792623 1.7517495,1.7517495 0 0 1 1.812734,1.666633"
           sodipodi:open="true"
           sodipodi:end="6.2352237"
           sodipodi:start="0"
           sodipodi:ry="1.7517495"
           sodipodi:rx="1.7517495"
           sodipodi:cy="101.71111"
           sodipodi:cx="71.467834"
           sodipodi:type="arc"
           id="path9990"
           style="opacity:1;fill:#ffdd55;fill-opacity:1;stroke:#000000;stroke-width:0.37028438;stroke-linecap:round;stroke-miterlimit:4;stroke-dasharray:none;stroke-opacity:1" />
      </g>
      <g
         id="g10002"
         transform="matrix(1.2019567,0,0,1.2019567,-14.180775,-21.492208)">
        <path
           sodipodi:nodetypes="caacaacc"
           inkscape:connector-curvature="0"
           id="path9994"
           d="m 73.596272,102.12079 c 0,0 1.5556,-0.41621 2.352977,-0.43451 1.084767,-0.0249 2.22452,0.86413 3.224784,0.44364 0.831452,-0.34952 1.611947,-2.173229 1.611947,-2.173229 0,0 -1.209296,1.306309 -2.024715,1.403409 -1.038431,0.12365 -1.883962,-1.04398 -2.926034,-1.1318 -0.723153,-0.0609 -2.133347,0.43452 -2.133347,0.43452 z"
           style="fill:#ffdd55;stroke:#000000;stroke-width:0.21289317;stroke-linecap:butt;stroke-linejoin:miter;stroke-miterlimit:4;stroke-dasharray:none;stroke-opacity:1" />
        <path
           style="fill:none;stroke:#000000;stroke-width:0.0709644px;stroke-linecap:round;stroke-linejoin:miter;stroke-opacity:1"
           d="m 75.183995,100.27232 c 0.505155,0.0366 0.521531,0.65934 0.309055,0.9406"
           id="path9996"
           inkscape:connector-curvature="0"
           sodipodi:nodetypes="cc" />
        <path
           sodipodi:nodetypes="cc"
           inkscape:connector-curvature="0"
           id="path9998"
           d="m 76.138034,100.35294 c 0.505155,0.0366 0.521531,0.65934 0.309055,0.9406"
           style="fill:none;stroke:#000000;stroke-width:0.0709644px;stroke-linecap:round;stroke-linejoin:miter;stroke-opacity:1" />
        <path
           style="fill:none;stroke:#000000;stroke-width:0.0709644px;stroke-linecap:round;stroke-linejoin:miter;stroke-opacity:1"
           d="m 76.957606,100.72532 c 0.25723,0.02 0.265568,0.40278 0.157373,0.55636"
           id="path10000"
           inkscape:connector-curvature="0"
           sodipodi:nodetypes="cc" />
      </g>
      <g
         id="g10010"
         transform="matrix(1.2019567,0,0,1.2019567,-13.759825,-20.930942)">
        <path
           inkscape:connector-curvature="0"
           id="path10004"
           transform="scale(0.26458333)"
           d="m 274.44727,340.9082 a 6.3472429,6.3472429 0 0 0 -5.65235,3.47461 6.3472429,6.3472429 0 0 0 2.79102,8.53321 6.3472429,6.3472429 0 0 0 8.53125,-2.78907 6.3472429,6.3472429 0 0 0 -2.78907,-8.5332 6.3472429,6.3472429 0 0 0 -2.88085,-0.68555 z m 0.004,3.03907 a 3.3067329,3.3067329 0 0 1 1.50195,0.35742 3.3067329,3.3067329 0 0 1 1.45313,4.44531 3.3067329,3.3067329 0 0 1 -4.44531,1.45312 3.3067329,3.3067329 0 0 1 -1.45313,-4.44531 3.3067329,3.3067329 0 0 1 2.94336,-1.81054 z"
           style="opacity:1;fill:#000000;fill-opacity:1;stroke:#000000;stroke-width:0.31038037;stroke-linecap:round;stroke-miterlimit:4;stroke-dasharray:none;stroke-opacity:1" />
        <path
           inkscape:connector-curvature="0"
           id="path10006"
           d="m 74.99257,91.377279 a 1.6793747,1.6793747 0 0 0 -1.495514,0.919323 1.6793747,1.6793747 0 0 0 0.737938,2.257743 1.6793747,1.6793747 0 0 0 2.257745,-0.737939 1.6793747,1.6793747 0 0 0 -0.737941,-2.257742 1.6793747,1.6793747 0 0 0 -0.762228,-0.181385 z m 0.001,0.804084 a 0.8749064,0.8749064 0 0 1 0.396875,0.09457 0.8749064,0.8749064 0 0 1 0.384474,1.176157 0.8749064,0.8749064 0 0 1 -1.176158,0.384471 0.8749064,0.8749064 0 0 1 -0.384471,-1.176155 0.8749064,0.8749064 0 0 1 0.77928,-0.479041 z"
           style="opacity:1;fill:#000000;fill-opacity:1;stroke:#000000;stroke-width:0.08212147;stroke-linecap:round;stroke-miterlimit:4;stroke-dasharray:none;stroke-opacity:1" />
        <rect
           transform="rotate(26.896689)"
           y="49.927509"
           x="106.87996"
           height="2.9860058"
           width="1.4044781"
           id="rect10008"
           style="opacity:1;fill:#000000;fill-opacity:1;stroke:#000000;stroke-width:0.08212148;stroke-linecap:round;stroke-miterlimit:4;stroke-dasharray:none;stroke-opacity:1" />
      </g>
      <g
         id="g10022"
         transform="translate(4.0264384,-2.0697113)">
        <path
           style="fill:#000000;stroke:none;stroke-width:0.10811336px;stroke-linecap:butt;stroke-linejoin:miter;stroke-opacity:1"
           d="m 58.881923,104.35991 12.031785,-0.17909 c 1.76424,-5.544134 0.401602,-8.806769 -2.082526,-9.887035 -3.980813,-1.731118 -11.798098,5.097225 -9.949259,10.066125 z"
           id="path10012"
           inkscape:connector-curvature="0"
           sodipodi:nodetypes="ccac" />
        <path
           style="fill:#000000;stroke:#000000;stroke-width:0.10811336px;stroke-linecap:butt;stroke-linejoin:miter;stroke-opacity:1"
           d="m 62.584725,96.82902 c -0.415128,-1.087119 -4.229186,2.945995 -5.133174,6.26601 0.973323,2.00623 0.563635,1.02079 4.552552,1.15381 z"
           id="path10014"
           inkscape:connector-curvature="0"
           sodipodi:nodetypes="cccc" />
        <path
           style="opacity:1;fill:#ffdd55;fill-opacity:1;stroke:#000000;stroke-width:0.15454331;stroke-linecap:round;stroke-miterlimit:4;stroke-dasharray:none;stroke-opacity:1"
           id="path10016"
           sodipodi:type="arc"
           sodipodi:cx="60.783966"
           sodipodi:cy="101.18295"
           sodipodi:rx="0.57937574"
           sodipodi:ry="0.57937574"
           sodipodi:start="0"
           sodipodi:end="6.2352237"
           sodipodi:open="true"
           d="m 61.363342,101.18295 a 0.57937574,0.57937574 0 0 1 -0.572429,0.57934 0.57937574,0.57937574 0 0 1 -0.586156,-0.56544 0.57937574,0.57937574 0 0 1 0.558373,-0.5929 0.57937574,0.57937574 0 0 1 0.599546,0.55123" />
        <path
           style="fill:none;stroke:#ffdd55;stroke-width:0.10811336px;stroke-linecap:butt;stroke-linejoin:miter;stroke-opacity:1"
           d="m 60.927342,98.963561 c 0.849656,-3.016217 4.167292,-2.262382 2.493988,1.783119"
           id="path10018"
           inkscape:connector-curvature="0"
           sodipodi:nodetypes="cc" />
        <path
           sodipodi:nodetypes="cc"
           inkscape:connector-curvature="0"
           id="path10020"
           d="M 61.541554,97.34276 C 60.89968,94.942958 58.411553,96.936123 59.300957,99.655125"
           style="fill:#000000;stroke:none;stroke-width:0.10811336px;stroke-linecap:butt;stroke-linejoin:miter;stroke-opacity:1" />
      </g>
    </g>
    <rect
       ry="3.7530153"
       y="265.11716"
       x="35.850491"
       height="29.899023"
       width="29.899023"
       id="rect7671"
       style="opacity:0.49300005;fill:#ffe680;fill-opacity:1;stroke:none;stroke-width:0.26865107"
       inkscape:export-xdpi="96"
       inkscape:export-ydpi="96" />
    <g
       id="g10062"
       transform="rotate(30,-262.20766,214.20226)">
      <g
         transform="translate(0.56126601)"
         id="g10030">
        <path
           d="m 67.343844,101.71111 a 1.7517495,1.7517495 0 0 1 -1.730746,1.75163 1.7517495,1.7517495 0 0 1 -1.772249,-1.70962 1.7517495,1.7517495 0 0 1 1.688246,-1.792623 1.7517495,1.7517495 0 0 1 1.812735,1.666633"
           sodipodi:open="true"
           sodipodi:end="6.2352237"
           sodipodi:start="0"
           sodipodi:ry="1.7517495"
           sodipodi:rx="1.7517495"
           sodipodi:cy="101.71111"
           sodipodi:cx="65.592094"
           sodipodi:type="arc"
           id="path10026"
           style="opacity:1;fill:#ffdd55;fill-opacity:1;stroke:#000000;stroke-width:0.37028438;stroke-linecap:round;stroke-miterlimit:4;stroke-dasharray:none;stroke-opacity:1" />
        <path
           style="opacity:1;fill:#ffdd55;fill-opacity:1;stroke:#000000;stroke-width:0.37028438;stroke-linecap:round;stroke-miterlimit:4;stroke-dasharray:none;stroke-opacity:1"
           id="path10028"
           sodipodi:type="arc"
           sodipodi:cx="71.467834"
           sodipodi:cy="101.71111"
           sodipodi:rx="1.7517495"
           sodipodi:ry="1.7517495"
           sodipodi:start="0"
           sodipodi:end="6.2352237"
           sodipodi:open="true"
           d="m 73.219584,101.71111 a 1.7517495,1.7517495 0 0 1 -1.730746,1.75163 1.7517495,1.7517495 0 0 1 -1.772249,-1.70962 1.7517495,1.7517495 0 0 1 1.688247,-1.792623 1.7517495,1.7517495 0 0 1 1.812734,1.666633" />
      </g>
      <g
         transform="matrix(1.2019567,0,0,1.2019567,-14.180775,-21.492208)"
         id="g10040">
        <path
           style="fill:#ffdd55;stroke:#000000;stroke-width:0.21289317;stroke-linecap:butt;stroke-linejoin:miter;stroke-miterlimit:4;stroke-dasharray:none;stroke-opacity:1"
           d="m 73.596272,102.12079 c 0,0 1.5556,-0.41621 2.352977,-0.43451 1.084767,-0.0249 2.22452,0.86413 3.224784,0.44364 0.831452,-0.34952 1.611947,-2.173229 1.611947,-2.173229 0,0 -1.209296,1.306309 -2.024715,1.403409 -1.038431,0.12365 -1.883962,-1.04398 -2.926034,-1.1318 -0.723153,-0.0609 -2.133347,0.43452 -2.133347,0.43452 z"
           id="path10032"
           inkscape:connector-curvature="0"
           sodipodi:nodetypes="caacaacc" />
        <path
           sodipodi:nodetypes="cc"
           inkscape:connector-curvature="0"
           id="path10034"
           d="m 75.183995,100.27232 c 0.505155,0.0366 0.521531,0.65934 0.309055,0.9406"
           style="fill:none;stroke:#000000;stroke-width:0.0709644px;stroke-linecap:round;stroke-linejoin:miter;stroke-opacity:1" />
        <path
           style="fill:none;stroke:#000000;stroke-width:0.0709644px;stroke-linecap:round;stroke-linejoin:miter;stroke-opacity:1"
           d="m 76.138034,100.35294 c 0.505155,0.0366 0.521531,0.65934 0.309055,0.9406"
           id="path10036"
           inkscape:connector-curvature="0"
           sodipodi:nodetypes="cc" />
        <path
           sodipodi:nodetypes="cc"
           inkscape:connector-curvature="0"
           id="path10038"
           d="m 76.957606,100.72532 c 0.25723,0.02 0.265568,0.40278 0.157373,0.55636"
           style="fill:none;stroke:#000000;stroke-width:0.0709644px;stroke-linecap:round;stroke-linejoin:miter;stroke-opacity:1" />
      </g>
      <g
         transform="matrix(1.2019567,0,0,1.2019567,-13.759825,-20.930942)"
         id="g10048">
        <path
           style="opacity:1;fill:#000000;fill-opacity:1;stroke:#000000;stroke-width:0.31038037;stroke-linecap:round;stroke-miterlimit:4;stroke-dasharray:none;stroke-opacity:1"
           d="m 274.44727,340.9082 a 6.3472429,6.3472429 0 0 0 -5.65235,3.47461 6.3472429,6.3472429 0 0 0 2.79102,8.53321 6.3472429,6.3472429 0 0 0 8.53125,-2.78907 6.3472429,6.3472429 0 0 0 -2.78907,-8.5332 6.3472429,6.3472429 0 0 0 -2.88085,-0.68555 z m 0.004,3.03907 a 3.3067329,3.3067329 0 0 1 1.50195,0.35742 3.3067329,3.3067329 0 0 1 1.45313,4.44531 3.3067329,3.3067329 0 0 1 -4.44531,1.45312 3.3067329,3.3067329 0 0 1 -1.45313,-4.44531 3.3067329,3.3067329 0 0 1 2.94336,-1.81054 z"
           transform="scale(0.26458333)"
           id="path10042"
           inkscape:connector-curvature="0" />
        <path
           style="opacity:1;fill:#000000;fill-opacity:1;stroke:#000000;stroke-width:0.08212147;stroke-linecap:round;stroke-miterlimit:4;stroke-dasharray:none;stroke-opacity:1"
           d="m 74.99257,91.377279 a 1.6793747,1.6793747 0 0 0 -1.495514,0.919323 1.6793747,1.6793747 0 0 0 0.737938,2.257743 1.6793747,1.6793747 0 0 0 2.257745,-0.737939 1.6793747,1.6793747 0 0 0 -0.737941,-2.257742 1.6793747,1.6793747 0 0 0 -0.762228,-0.181385 z m 0.001,0.804084 a 0.8749064,0.8749064 0 0 1 0.396875,0.09457 0.8749064,0.8749064 0 0 1 0.384474,1.176157 0.8749064,0.8749064 0 0 1 -1.176158,0.384471 0.8749064,0.8749064 0 0 1 -0.384471,-1.176155 0.8749064,0.8749064 0 0 1 0.77928,-0.479041 z"
           id="path10044"
           inkscape:connector-curvature="0" />
        <rect
           style="opacity:1;fill:#000000;fill-opacity:1;stroke:#000000;stroke-width:0.08212148;stroke-linecap:round;stroke-miterlimit:4;stroke-dasharray:none;stroke-opacity:1"
           id="rect10046"
           width="1.4044781"
           height="2.9860058"
           x="106.87996"
           y="49.927509"
           transform="rotate(26.896689)" />
      </g>
      <g
         transform="translate(4.0264384,-2.0697113)"
         id="g10060">
        <path
           sodipodi:nodetypes="ccac"
           inkscape:connector-curvature="0"
           id="path10050"
           d="m 58.881923,104.35991 12.031785,-0.17909 c 1.76424,-5.544134 0.401602,-8.806769 -2.082526,-9.887035 -3.980813,-1.731118 -11.798098,5.097225 -9.949259,10.066125 z"
           style="fill:#000000;stroke:none;stroke-width:0.10811336px;stroke-linecap:butt;stroke-linejoin:miter;stroke-opacity:1" />
        <path
           sodipodi:nodetypes="cccc"
           inkscape:connector-curvature="0"
           id="path10052"
           d="m 62.584725,96.82902 c -0.415128,-1.087119 -4.229186,2.945995 -5.133174,6.26601 0.973323,2.00623 0.563635,1.02079 4.552552,1.15381 z"
           style="fill:#000000;stroke:#000000;stroke-width:0.10811336px;stroke-linecap:butt;stroke-linejoin:miter;stroke-opacity:1" />
        <path
           d="m 61.363342,101.18295 a 0.57937574,0.57937574 0 0 1 -0.572429,0.57934 0.57937574,0.57937574 0 0 1 -0.586156,-0.56544 0.57937574,0.57937574 0 0 1 0.558373,-0.5929 0.57937574,0.57937574 0 0 1 0.599546,0.55123"
           sodipodi:open="true"
           sodipodi:end="6.2352237"
           sodipodi:start="0"
           sodipodi:ry="0.57937574"
           sodipodi:rx="0.57937574"
           sodipodi:cy="101.18295"
           sodipodi:cx="60.783966"
           sodipodi:type="arc"
           id="path10054"
           style="opacity:1;fill:#ffdd55;fill-opacity:1;stroke:#000000;stroke-width:0.15454331;stroke-linecap:round;stroke-miterlimit:4;stroke-dasharray:none;stroke-opacity:1" />
        <path
           sodipodi:nodetypes="cc"
           inkscape:connector-curvature="0"
           id="path10056"
           d="m 60.927342,98.963561 c 0.849656,-3.016217 4.167292,-2.262382 2.493988,1.783119"
           style="fill:none;stroke:#ffdd55;stroke-width:0.10811336px;stroke-linecap:butt;stroke-linejoin:miter;stroke-opacity:1" />
        <path
           style="fill:#000000;stroke:none;stroke-width:0.10811336px;stroke-linecap:butt;stroke-linejoin:miter;stroke-opacity:1"
           d="M 61.541554,97.34276 C 60.89968,94.942958 58.411553,96.936123 59.300957,99.655125"
           id="path10058"
           inkscape:connector-curvature="0"
           sodipodi:nodetypes="cc" />
      </g>
    </g>
    <g
       id="g7685"
       transform="translate(-57.80161,260.51916)">
      <rect
         ry="3.7530153"
         y="4.5979843"
         x="127.51851"
         height="29.899023"
         width="29.899023"
         id="rect7683"
         style="opacity:0.51999996;fill:#dbaf00;fill-opacity:1;stroke:none;stroke-width:0.26865107" />
    </g>
  </g>
</svg>
