<?xml version="1.0" encoding="UTF-8" standalone="no"?>
<!-- Created with Inkscape (http://www.inkscape.org/) -->

<svg
   xmlns:dc="http://purl.org/dc/elements/1.1/"
   xmlns:cc="http://creativecommons.org/ns#"
   xmlns:rdf="http://www.w3.org/1999/02/22-rdf-syntax-ns#"
   xmlns:svg="http://www.w3.org/2000/svg"
   xmlns="http://www.w3.org/2000/svg"
   xmlns:xlink="http://www.w3.org/1999/xlink"
   xmlns:sodipodi="http://sodipodi.sourceforge.net/DTD/sodipodi-0.dtd"
   xmlns:inkscape="http://www.inkscape.org/namespaces/inkscape"
   width="384"
   height="128"
   viewBox="0 0 101.6 33.866668"
   version="1.1"
   id="svg4960"
   inkscape:version="0.92.1 r15371"
   sodipodi:docname="simplepet_btn_disipline_spritesheet.svg"
   inkscape:export-filename="C:\Users\Lupek\Documents\SourceTreeRepos\web-portfolio\RdmpPractice\images\simplepet_btn_food_spritesheet.png"
   inkscape:export-xdpi="96"
   inkscape:export-ydpi="96">
  <defs
     id="defs4954" />
  <sodipodi:namedview
     id="base"
     pagecolor="#ffffff"
     bordercolor="#666666"
     borderopacity="1.0"
     inkscape:pageopacity="0.0"
     inkscape:pageshadow="2"
     inkscape:zoom="1.979899"
     inkscape:cx="33.281266"
     inkscape:cy="99.619734"
     inkscape:document-units="px"
     inkscape:current-layer="layer1"
     showgrid="false"
     units="px"
     inkscape:window-width="1920"
     inkscape:window-height="1017"
     inkscape:window-x="-8"
     inkscape:window-y="-8"
     inkscape:window-maximized="1" />
  <metadata
     id="metadata4957">
    <rdf:RDF>
      <cc:Work
         rdf:about="">
        <dc:format>image/svg+xml</dc:format>
        <dc:type
           rdf:resource="http://purl.org/dc/dcmitype/StillImage" />
        <dc:title></dc:title>
      </cc:Work>
    </rdf:RDF>
  </metadata>
  <g
     inkscape:label="Layer 1"
     inkscape:groupmode="layer"
     id="layer1"
     transform="translate(0,-263.13332)">
    <path
       d="m 17.78125,42.220703 c -3.143217,0 -5.736328,2.593111 -5.736328,5.736328 v 22.394531 c 0,3.143219 2.593111,5.736329 5.736328,5.736329 h 22.394531 c 3.143218,0 5.736328,-2.593111 5.736328,-5.736329 V 47.957031 c 0,-3.143216 -2.59311,-5.736328 -5.736328,-5.736328 z"
       inkscape:href="#path4585-7"
       id="path4591-6"
       style="opacity:1;fill:#1a1a1a;fill-opacity:1;stroke:none;stroke-width:0.26865107"
       xlink:href="#path4585-7"
       inkscape:original="M 5.7363281 265.11719 C 3.6571577 265.11719 1.984375 266.79192 1.984375 268.87109 L 1.984375 291.26367 C 1.984375 293.34284 3.6571577 295.01563 5.7363281 295.01562 L 28.130859 295.01562 C 30.21003 295.01562 31.882812 293.34284 31.882812 291.26367 L 31.882812 268.87109 C 31.882812 266.79192 30.21003 265.11719 28.130859 265.11719 L 5.7363281 265.11719 z "
       inkscape:radius="1.9838215"
       sodipodi:type="inkscape:offset"
       transform="translate(21.821485,220.91236)" />
    <path
       d="m 17.78125,44.205078 c -2.07917,0 -3.751953,1.672783 -3.751953,3.751953 v 22.394531 c 0,2.079171 1.672783,3.751954 3.751953,3.751954 h 22.394531 c 2.079171,0 3.751953,-1.672783 3.751953,-3.751954 V 47.957031 c 0,-2.07917 -1.672782,-3.751953 -3.751953,-3.751953 z"
       inkscape:href="#rect4575-6"
       id="path4589-3"
       style="opacity:1;fill:#ffe680;fill-opacity:1;stroke:none;stroke-width:0.26865107"
       xlink:href="#rect4575-6"
       inkscape:original="M 5.7363281 265.11719 C 3.6571577 265.11719 1.984375 266.79192 1.984375 268.87109 L 1.984375 291.26367 C 1.984375 293.34284 3.6571577 295.01562 5.7363281 295.01562 L 28.130859 295.01562 C 30.21003 295.01562 31.882812 293.34284 31.882812 291.26367 L 31.882812 268.87109 C 31.882812 266.79192 30.21003 265.11719 28.130859 265.11719 L 5.7363281 265.11719 z "
       inkscape:radius="0"
       sodipodi:type="inkscape:offset"
       transform="translate(21.820931,220.91204)"
       inkscape:export-xdpi="96"
       inkscape:export-ydpi="96" />
    <path
       sodipodi:type="inkscape:offset"
       inkscape:radius="0"
       inkscape:original="M 5.7363281 265.11719 C 3.6571577 265.11719 1.984375 266.79192 1.984375 268.87109 L 1.984375 291.26367 C 1.984375 293.34284 3.6571577 295.01562 5.7363281 295.01562 L 28.130859 295.01562 C 30.21003 295.01562 31.882812 293.34284 31.882812 291.26367 L 31.882812 268.87109 C 31.882812 266.79192 30.21003 265.11719 28.130859 265.11719 L 5.7363281 265.11719 z "
       xlink:href="#rect4575-6"
       style="opacity:1;fill:#241f1c;fill-opacity:1;stroke:none;stroke-width:0.26865107"
       id="path4593-7"
       inkscape:href="#rect4575-6"
       d="m 17.78125,44.205078 c -2.07917,0 -3.751953,1.672783 -3.751953,3.751953 v 22.394531 c 0,2.079171 1.672783,3.751954 3.751953,3.751954 h 22.394531 c 2.079171,0 3.751953,-1.672783 3.751953,-3.751954 V 47.957031 c 0,-2.07917 -1.672782,-3.751953 -3.751953,-3.751953 z"
       transform="translate(21.820931,220.91204)"
       inkscape:export-xdpi="96"
       inkscape:export-ydpi="96" />
    <g
       id="g7296"
       transform="translate(59.182229,33.847878)">
      <g
         inkscape:export-ydpi="96"
         inkscape:export-xdpi="96"
         inkscape:export-filename="C:\Users\Lupek\Pictures\_MangaStudio\2018\Pet Website\button_base.png"
         transform="translate(-106.79748,153.59831)"
         id="g5088-6">
        <path
           inkscape:export-ydpi="96"
           inkscape:export-xdpi="96"
           d="m 17.78125,42.220703 c -3.143217,0 -5.736328,2.593111 -5.736328,5.736328 v 22.394531 c 0,3.143219 2.593111,5.736329 5.736328,5.736329 h 22.394531 c 3.143218,0 5.736328,-2.593111 5.736328,-5.736329 V 47.957031 c 0,-3.143216 -2.59311,-5.736328 -5.736328,-5.736328 z"
           inkscape:href="#path4585"
           id="path5079-4"
           style="opacity:1;fill:#1a1a1a;fill-opacity:1;stroke:none;stroke-width:0.26865107"
           xlink:href="#path4585"
           inkscape:original="M 17.78125 44.205078 C 15.70208 44.205078 14.029297 45.877861 14.029297 47.957031 L 14.029297 70.351562 C 14.029297 72.430734 15.70208 74.103516 17.78125 74.103516 L 40.175781 74.103516 C 42.254952 74.103516 43.927734 72.430733 43.927734 70.351562 L 43.927734 47.957031 C 43.927734 45.877861 42.254952 44.205078 40.175781 44.205078 L 17.78125 44.205078 z "
           inkscape:radius="1.9838215"
           sodipodi:type="inkscape:offset"
           transform="translate(35.570329,33.466169)" />
        <rect
           inkscape:export-ydpi="96"
           inkscape:export-xdpi="96"
           style="opacity:1;fill:#ffe680;fill-opacity:1;stroke:none;stroke-width:0.26865107"
           id="rect5081-5"
           width="29.899023"
           height="29.899023"
           x="49.599335"
           y="77.670952"
           ry="3.7530153" />
        <rect
           inkscape:export-ydpi="96"
           inkscape:export-xdpi="96"
           ry="3.3617055"
           y="79.229675"
           x="51.158051"
           height="26.78159"
           width="26.78159"
           id="rect5083-3"
           style="opacity:1;fill:#ffcc00;fill-opacity:1;stroke:none;stroke-width:0.24064006" />
      </g>
      <g
         transform="matrix(0.44076621,0,0,0.44076621,10.813736,215.19246)"
         id="g6369">
        <path
           inkscape:href="#rect6209"
           transform="matrix(0.89756139,0,0,0.78206251,4.9270763,10.972786)"
           d="m -144.45508,77.664062 a 0.33766857,0.33766857 0 0 0 -0.26953,0.134766 l -3.11914,4.171875 a 0.33766857,0.33766857 0 0 0 -0.0684,0.203125 v 27.324222 a 0.33766857,0.33766857 0 0 0 0.33789,0.33789 h 19.41406 a 0.33766857,0.33766857 0 0 0 0.33789,-0.33789 V 82.142578 a 0.33766857,0.33766857 0 0 0 -0.0664,-0.199219 l -3.04688,-4.140625 a 0.33766857,0.33766857 0 0 0 -0.27148,-0.138672 z"
           id="path6347"
           style="opacity:1;fill:#000000;fill-opacity:1;stroke:none;stroke-width:2.57307029;stroke-linecap:round;stroke-miterlimit:4;stroke-dasharray:none;stroke-opacity:1"
           xlink:href="#rect6209"
           inkscape:original="M -144.45508 78.001953 L -147.57422 82.173828 L -147.57422 109.49805 L -128.16016 109.49805 L -128.16016 82.142578 L -131.20703 78.001953 L -144.45508 78.001953 z "
           inkscape:radius="0.3376348"
           sodipodi:type="inkscape:offset" />
        <path
           sodipodi:nodetypes="ccccc"
           inkscape:connector-curvature="0"
           id="path6349"
           d="m -122.07316,65.300647 h 6.56297 l 3.20634,9.125401 h -12.72516 z"
           style="opacity:1;fill:#000000;fill-opacity:1;stroke:none;stroke-width:0.65560061;stroke-linecap:round;stroke-miterlimit:4;stroke-dasharray:none;stroke-opacity:1" />
        <path
           d="m -121.38281,61.070312 a 0.29921347,0.29921347 0 0 0 -0.22461,0.101563 l -1.61328,1.839844 a 0.29921347,0.29921347 0 0 0 0,0.394531 l 1.61328,1.837891 a 0.29921347,0.29921347 0 0 0 0.22461,0.101562 l 5.11133,-0.01172 a 0.29921347,0.29921347 0 0 0 0.20898,-0.08594 l 1.85547,-1.826172 a 0.29921347,0.29921347 0 0 0 0.002,-0.425781 l -1.85547,-1.828125 a 0.29921347,0.29921347 0 0 0 -0.21093,-0.08594 z"
           inkscape:href="#path6221"
           id="path6351"
           style="fill:#000000;stroke:#000000;stroke-width:0.19722475px;stroke-linecap:butt;stroke-linejoin:round;stroke-opacity:1"
           xlink:href="#path6221"
           inkscape:original="M -121.38281 61.369141 L -122.99609 63.208984 L -121.38281 65.046875 L -116.27148 65.035156 L -114.41602 63.208984 L -116.27148 61.380859 L -121.38281 61.369141 z "
           inkscape:radius="0.29918355"
           sodipodi:type="inkscape:offset" />
        <path
           sodipodi:nodetypes="ccccccc"
           inkscape:connector-curvature="0"
           id="path6353"
           d="m -116.27186,61.381819 -5.11052,-0.01301 -1.61335,1.839364 1.61335,1.839365 5.11052,-0.01301 1.85528,-1.826348 z"
           style="fill:#000000;stroke:#000000;stroke-width:0.14848238px;stroke-linecap:butt;stroke-linejoin:round;stroke-opacity:1" />
        <path
           sodipodi:nodetypes="csscc"
           inkscape:connector-curvature="0"
           id="path6355"
           d="m -125.83369,55.632945 c -0.92428,3.331134 -2.97179,6.355933 -6.83146,8.886507 -0.81163,0.532142 2.16343,0.610329 3.13108,0.21285 3.48042,-1.429646 7.47191,-8.460806 7.47191,-8.460806 z"
           style="fill:#000000;stroke:#000000;stroke-width:0.22979797px;stroke-linecap:butt;stroke-linejoin:miter;stroke-opacity:1" />
        <path
           sodipodi:nodetypes="ccccc"
           inkscape:connector-curvature="0"
           id="path6357"
           d="m -130.69364,51.823693 3.18828,-1.275314 v 5.101255 l -3.18828,-1.204463 z"
           style="opacity:1;fill:#000000;fill-opacity:1;stroke:none;stroke-width:0.79374999;stroke-linecap:round;stroke-miterlimit:4;stroke-dasharray:none;stroke-opacity:1" />
        <path
           sodipodi:nodetypes="csssccccc"
           inkscape:connector-curvature="0"
           id="path6359"
           d="m -127.89504,51.150608 c 0.63766,0.1417 9.0246,-0.743933 13.60335,-0.743933 1.95219,0 3.48171,1.706539 4.93258,3.157405 1.28734,1.287342 1.12615,2.354819 -1.0446,2.363867 -2.75455,0.01148 -4.95466,5.843325 -4.95466,5.843325 h -7.29371 v -2.012296 l -5.09803,-2.94335 z"
           style="fill:#000000;stroke:#000000;stroke-width:0.26458332px;stroke-linecap:butt;stroke-linejoin:round;stroke-opacity:1" />
        <g
           transform="translate(0,-0.3526495)"
           id="g6367">
          <path
             style="fill:none;stroke:#000000;stroke-width:0.79374999;stroke-linecap:round;stroke-linejoin:miter;stroke-miterlimit:4;stroke-dasharray:3.17500001, 6.35000002;stroke-dashoffset:0;stroke-opacity:1"
             d="m -132.07523,51.752841 -12.27725,-7.088277"
             id="path6361"
             inkscape:connector-curvature="0" />
          <path
             inkscape:connector-curvature="0"
             id="path6363"
             d="m -132.14608,55.150471 -12.27725,7.088277"
             style="fill:none;stroke:#000000;stroke-width:0.79374999;stroke-linecap:round;stroke-linejoin:miter;stroke-miterlimit:4;stroke-dasharray:3.17500001, 6.35000002;stroke-dashoffset:0;stroke-opacity:1" />
          <path
             style="fill:none;stroke:#000000;stroke-width:0.79374999;stroke-linecap:round;stroke-linejoin:miter;stroke-miterlimit:4;stroke-dasharray:3.17500001, 6.35000002;stroke-dashoffset:0;stroke-opacity:1"
             d="m -132.18834,53.45165 -14.17655,3e-6"
             id="path6365"
             inkscape:connector-curvature="0" />
        </g>
      </g>
    </g>
    <g
       id="g7315"
       transform="translate(58.90495,33.847878)">
      <g
         id="g6401"
         transform="translate(-72.653794,153.59831)"
         inkscape:export-filename="C:\Users\Lupek\Pictures\_MangaStudio\2018\Pet Website\button_base.png"
         inkscape:export-xdpi="96"
         inkscape:export-ydpi="96">
        <path
           transform="translate(35.570329,33.466169)"
           sodipodi:type="inkscape:offset"
           inkscape:radius="1.9838215"
           inkscape:original="M 17.78125 44.205078 C 15.70208 44.205078 14.029297 45.877861 14.029297 47.957031 L 14.029297 70.351562 C 14.029297 72.430734 15.70208 74.103516 17.78125 74.103516 L 40.175781 74.103516 C 42.254952 74.103516 43.927734 72.430733 43.927734 70.351562 L 43.927734 47.957031 C 43.927734 45.877861 42.254952 44.205078 40.175781 44.205078 L 17.78125 44.205078 z "
           xlink:href="#path4585"
           style="opacity:1;fill:#1a1a1a;fill-opacity:1;stroke:none;stroke-width:0.26865107"
           id="path6395"
           inkscape:href="#path4585"
           d="m 17.78125,42.220703 c -3.143217,0 -5.736328,2.593111 -5.736328,5.736328 v 22.394531 c 0,3.143219 2.593111,5.736329 5.736328,5.736329 h 22.394531 c 3.143218,0 5.736328,-2.593111 5.736328,-5.736329 V 47.957031 c 0,-3.143216 -2.59311,-5.736328 -5.736328,-5.736328 z"
           inkscape:export-xdpi="96"
           inkscape:export-ydpi="96" />
        <rect
           ry="3.7530153"
           y="77.670952"
           x="49.599335"
           height="29.899023"
           width="29.899023"
           id="rect6397"
           style="opacity:1;fill:#ffe680;fill-opacity:1;stroke:none;stroke-width:0.26865107"
           inkscape:export-xdpi="96"
           inkscape:export-ydpi="96" />
        <rect
           style="opacity:1;fill:#ffcc00;fill-opacity:1;stroke:none;stroke-width:0.24064006"
           id="rect6399"
           width="26.78159"
           height="26.78159"
           x="51.158051"
           y="79.229675"
           ry="3.3617055"
           inkscape:export-xdpi="96"
           inkscape:export-ydpi="96" />
      </g>
      <g
         id="g6425"
         transform="matrix(0.44076621,0,0,0.44076621,44.957415,215.19246)">
        <path
           sodipodi:type="inkscape:offset"
           inkscape:radius="0.3376348"
           inkscape:original="M -144.45508 78.001953 L -147.57422 82.173828 L -147.57422 109.49805 L -128.16016 109.49805 L -128.16016 82.142578 L -131.20703 78.001953 L -144.45508 78.001953 z "
           xlink:href="#rect6209"
           style="opacity:1;fill:#000000;fill-opacity:1;stroke:none;stroke-width:2.57307029;stroke-linecap:round;stroke-miterlimit:4;stroke-dasharray:none;stroke-opacity:1"
           id="path6403"
           d="m -144.45508,77.664062 a 0.33766857,0.33766857 0 0 0 -0.26953,0.134766 l -3.11914,4.171875 a 0.33766857,0.33766857 0 0 0 -0.0684,0.203125 v 27.324222 a 0.33766857,0.33766857 0 0 0 0.33789,0.33789 h 19.41406 a 0.33766857,0.33766857 0 0 0 0.33789,-0.33789 V 82.142578 a 0.33766857,0.33766857 0 0 0 -0.0664,-0.199219 l -3.04688,-4.140625 a 0.33766857,0.33766857 0 0 0 -0.27148,-0.138672 z"
           transform="matrix(0.89756139,0,0,0.78206251,4.9270763,10.972786)"
           inkscape:href="#rect6209" />
        <path
           style="opacity:1;fill:#000000;fill-opacity:1;stroke:none;stroke-width:0.65560061;stroke-linecap:round;stroke-miterlimit:4;stroke-dasharray:none;stroke-opacity:1"
           d="m -122.07316,65.300647 h 6.56297 l 3.20634,9.125401 h -12.72516 z"
           id="path6405"
           inkscape:connector-curvature="0"
           sodipodi:nodetypes="ccccc" />
        <path
           sodipodi:type="inkscape:offset"
           inkscape:radius="0.29918355"
           inkscape:original="M -121.38281 61.369141 L -122.99609 63.208984 L -121.38281 65.046875 L -116.27148 65.035156 L -114.41602 63.208984 L -116.27148 61.380859 L -121.38281 61.369141 z "
           xlink:href="#path6221"
           style="fill:#000000;stroke:#000000;stroke-width:0.19722475px;stroke-linecap:butt;stroke-linejoin:round;stroke-opacity:1"
           id="path6407"
           inkscape:href="#path6221"
           d="m -121.38281,61.070312 a 0.29921347,0.29921347 0 0 0 -0.22461,0.101563 l -1.61328,1.839844 a 0.29921347,0.29921347 0 0 0 0,0.394531 l 1.61328,1.837891 a 0.29921347,0.29921347 0 0 0 0.22461,0.101562 l 5.11133,-0.01172 a 0.29921347,0.29921347 0 0 0 0.20898,-0.08594 l 1.85547,-1.826172 a 0.29921347,0.29921347 0 0 0 0.002,-0.425781 l -1.85547,-1.828125 a 0.29921347,0.29921347 0 0 0 -0.21093,-0.08594 z" />
        <path
           style="fill:#000000;stroke:#000000;stroke-width:0.14848238px;stroke-linecap:butt;stroke-linejoin:round;stroke-opacity:1"
           d="m -116.27186,61.381819 -5.11052,-0.01301 -1.61335,1.839364 1.61335,1.839365 5.11052,-0.01301 1.85528,-1.826348 z"
           id="path6409"
           inkscape:connector-curvature="0"
           sodipodi:nodetypes="ccccccc" />
        <path
           style="fill:#000000;stroke:#000000;stroke-width:0.22979797px;stroke-linecap:butt;stroke-linejoin:miter;stroke-opacity:1"
           d="m -125.83369,55.632945 c -0.92428,3.331134 -2.97179,6.355933 -6.83146,8.886507 -0.81163,0.532142 2.16343,0.610329 3.13108,0.21285 3.48042,-1.429646 7.47191,-8.460806 7.47191,-8.460806 z"
           id="path6411"
           inkscape:connector-curvature="0"
           sodipodi:nodetypes="csscc" />
        <path
           style="opacity:1;fill:#000000;fill-opacity:1;stroke:none;stroke-width:0.79374999;stroke-linecap:round;stroke-miterlimit:4;stroke-dasharray:none;stroke-opacity:1"
           d="m -130.69364,51.823693 3.18828,-1.275314 v 5.101255 l -3.18828,-1.204463 z"
           id="path6413"
           inkscape:connector-curvature="0"
           sodipodi:nodetypes="ccccc" />
        <path
           style="fill:#000000;stroke:#000000;stroke-width:0.26458332px;stroke-linecap:butt;stroke-linejoin:round;stroke-opacity:1"
           d="m -127.89504,51.150608 c 0.63766,0.1417 9.0246,-0.743933 13.60335,-0.743933 1.95219,0 3.48171,1.706539 4.93258,3.157405 1.28734,1.287342 1.12615,2.354819 -1.0446,2.363867 -2.75455,0.01148 -4.95466,5.843325 -4.95466,5.843325 h -7.29371 v -2.012296 l -5.09803,-2.94335 z"
           id="path6415"
           inkscape:connector-curvature="0"
           sodipodi:nodetypes="csssccccc" />
        <g
           id="g6423"
           transform="translate(0,-0.3526495)">
          <path
             inkscape:connector-curvature="0"
             id="path6417"
             d="m -132.07523,51.752841 -12.27725,-7.088277"
             style="fill:none;stroke:#000000;stroke-width:0.79374999;stroke-linecap:round;stroke-linejoin:miter;stroke-miterlimit:4;stroke-dasharray:3.17500001, 6.35000002;stroke-dashoffset:0;stroke-opacity:1" />
          <path
             style="fill:none;stroke:#000000;stroke-width:0.79374999;stroke-linecap:round;stroke-linejoin:miter;stroke-miterlimit:4;stroke-dasharray:3.17500001, 6.35000002;stroke-dashoffset:0;stroke-opacity:1"
             d="m -132.14608,55.150471 -12.27725,7.088277"
             id="path6419"
             inkscape:connector-curvature="0" />
          <path
             inkscape:connector-curvature="0"
             id="path6421"
             d="m -132.18834,53.45165 -14.17655,3e-6"
             style="fill:none;stroke:#000000;stroke-width:0.79374999;stroke-linecap:round;stroke-linejoin:miter;stroke-miterlimit:4;stroke-dasharray:3.17500001, 6.35000002;stroke-dashoffset:0;stroke-opacity:1" />
        </g>
      </g>
      <rect
         ry="3.7530153"
         y="231.26926"
         x="-23.054462"
         height="29.899023"
         width="29.899023"
         id="rect6487"
         style="opacity:0.49300005;fill:#ffe680;fill-opacity:1;stroke:none;stroke-width:0.26865107"
         inkscape:export-xdpi="96"
         inkscape:export-ydpi="96" />
    </g>
    <g
       id="g7334"
       transform="translate(58.721218,33.847617)">
      <g
         inkscape:export-ydpi="96"
         inkscape:export-xdpi="96"
         inkscape:export-filename="C:\Users\Lupek\Pictures\_MangaStudio\2018\Pet Website\button_base.png"
         transform="translate(-38.603654,153.59831)"
         id="g6433">
        <path
           inkscape:export-ydpi="96"
           inkscape:export-xdpi="96"
           d="m 17.78125,42.220703 c -3.143217,0 -5.736328,2.593111 -5.736328,5.736328 v 22.394531 c 0,3.143219 2.593111,5.736329 5.736328,5.736329 h 22.394531 c 3.143218,0 5.736328,-2.593111 5.736328,-5.736329 V 47.957031 c 0,-3.143216 -2.59311,-5.736328 -5.736328,-5.736328 z"
           inkscape:href="#path4585"
           id="path6427"
           style="opacity:1;fill:#1a1a1a;fill-opacity:1;stroke:none;stroke-width:0.26865107"
           xlink:href="#path4585"
           inkscape:original="M 17.78125 44.205078 C 15.70208 44.205078 14.029297 45.877861 14.029297 47.957031 L 14.029297 70.351562 C 14.029297 72.430734 15.70208 74.103516 17.78125 74.103516 L 40.175781 74.103516 C 42.254952 74.103516 43.927734 72.430733 43.927734 70.351562 L 43.927734 47.957031 C 43.927734 45.877861 42.254952 44.205078 40.175781 44.205078 L 17.78125 44.205078 z "
           inkscape:radius="1.9838215"
           sodipodi:type="inkscape:offset"
           transform="translate(35.570329,33.466169)" />
        <rect
           inkscape:export-ydpi="96"
           inkscape:export-xdpi="96"
           style="opacity:1;fill:#ffe680;fill-opacity:1;stroke:none;stroke-width:0.26865107"
           id="rect6429"
           width="29.899023"
           height="29.899023"
           x="49.599335"
           y="77.670952"
           ry="3.7530153" />
        <rect
           inkscape:export-ydpi="96"
           inkscape:export-xdpi="96"
           ry="3.3617055"
           y="79.229675"
           x="51.158051"
           height="26.78159"
           width="26.78159"
           id="rect6431"
           style="opacity:1;fill:#ffcc00;fill-opacity:1;stroke:none;stroke-width:0.24064006" />
      </g>
      <g
         transform="matrix(0.44076621,0,0,0.44076621,79.007555,215.19246)"
         id="g6457">
        <path
           inkscape:href="#rect6209"
           transform="matrix(0.89756139,0,0,0.78206251,4.9270763,10.972786)"
           d="m -144.45508,77.664062 a 0.33766857,0.33766857 0 0 0 -0.26953,0.134766 l -3.11914,4.171875 a 0.33766857,0.33766857 0 0 0 -0.0684,0.203125 v 27.324222 a 0.33766857,0.33766857 0 0 0 0.33789,0.33789 h 19.41406 a 0.33766857,0.33766857 0 0 0 0.33789,-0.33789 V 82.142578 a 0.33766857,0.33766857 0 0 0 -0.0664,-0.199219 l -3.04688,-4.140625 a 0.33766857,0.33766857 0 0 0 -0.27148,-0.138672 z"
           id="path6435"
           style="opacity:1;fill:#000000;fill-opacity:1;stroke:none;stroke-width:2.57307029;stroke-linecap:round;stroke-miterlimit:4;stroke-dasharray:none;stroke-opacity:1"
           xlink:href="#rect6209"
           inkscape:original="M -144.45508 78.001953 L -147.57422 82.173828 L -147.57422 109.49805 L -128.16016 109.49805 L -128.16016 82.142578 L -131.20703 78.001953 L -144.45508 78.001953 z "
           inkscape:radius="0.3376348"
           sodipodi:type="inkscape:offset" />
        <path
           sodipodi:nodetypes="ccccc"
           inkscape:connector-curvature="0"
           id="path6437"
           d="m -122.07316,65.300647 h 6.56297 l 3.20634,9.125401 h -12.72516 z"
           style="opacity:1;fill:#000000;fill-opacity:1;stroke:none;stroke-width:0.65560061;stroke-linecap:round;stroke-miterlimit:4;stroke-dasharray:none;stroke-opacity:1" />
        <path
           d="m -121.38281,61.070312 a 0.29921347,0.29921347 0 0 0 -0.22461,0.101563 l -1.61328,1.839844 a 0.29921347,0.29921347 0 0 0 0,0.394531 l 1.61328,1.837891 a 0.29921347,0.29921347 0 0 0 0.22461,0.101562 l 5.11133,-0.01172 a 0.29921347,0.29921347 0 0 0 0.20898,-0.08594 l 1.85547,-1.826172 a 0.29921347,0.29921347 0 0 0 0.002,-0.425781 l -1.85547,-1.828125 a 0.29921347,0.29921347 0 0 0 -0.21093,-0.08594 z"
           inkscape:href="#path6221"
           id="path6439"
           style="fill:#000000;stroke:#000000;stroke-width:0.19722475px;stroke-linecap:butt;stroke-linejoin:round;stroke-opacity:1"
           xlink:href="#path6221"
           inkscape:original="M -121.38281 61.369141 L -122.99609 63.208984 L -121.38281 65.046875 L -116.27148 65.035156 L -114.41602 63.208984 L -116.27148 61.380859 L -121.38281 61.369141 z "
           inkscape:radius="0.29918355"
           sodipodi:type="inkscape:offset" />
        <path
           sodipodi:nodetypes="ccccccc"
           inkscape:connector-curvature="0"
           id="path6441"
           d="m -116.27186,61.381819 -5.11052,-0.01301 -1.61335,1.839364 1.61335,1.839365 5.11052,-0.01301 1.85528,-1.826348 z"
           style="fill:#000000;stroke:#000000;stroke-width:0.14848238px;stroke-linecap:butt;stroke-linejoin:round;stroke-opacity:1" />
        <path
           sodipodi:nodetypes="csscc"
           inkscape:connector-curvature="0"
           id="path6443"
           d="m -125.83369,55.632945 c -0.92428,3.331134 -2.97179,6.355933 -6.83146,8.886507 -0.81163,0.532142 2.16343,0.610329 3.13108,0.21285 3.48042,-1.429646 7.47191,-8.460806 7.47191,-8.460806 z"
           style="fill:#000000;stroke:#000000;stroke-width:0.22979797px;stroke-linecap:butt;stroke-linejoin:miter;stroke-opacity:1" />
        <path
           sodipodi:nodetypes="ccccc"
           inkscape:connector-curvature="0"
           id="path6445"
           d="m -130.69364,51.823693 3.18828,-1.275314 v 5.101255 l -3.18828,-1.204463 z"
           style="opacity:1;fill:#000000;fill-opacity:1;stroke:none;stroke-width:0.79374999;stroke-linecap:round;stroke-miterlimit:4;stroke-dasharray:none;stroke-opacity:1" />
        <path
           sodipodi:nodetypes="csssccccc"
           inkscape:connector-curvature="0"
           id="path6447"
           d="m -127.89504,51.150608 c 0.63766,0.1417 9.0246,-0.743933 13.60335,-0.743933 1.95219,0 3.48171,1.706539 4.93258,3.157405 1.28734,1.287342 1.12615,2.354819 -1.0446,2.363867 -2.75455,0.01148 -4.95466,5.843325 -4.95466,5.843325 h -7.29371 v -2.012296 l -5.09803,-2.94335 z"
           style="fill:#000000;stroke:#000000;stroke-width:0.26458332px;stroke-linecap:butt;stroke-linejoin:round;stroke-opacity:1" />
        <g
           transform="translate(0,-0.3526495)"
           id="g6455">
          <path
             style="fill:none;stroke:#000000;stroke-width:0.79374999;stroke-linecap:round;stroke-linejoin:miter;stroke-miterlimit:4;stroke-dasharray:3.17500001, 6.35000002;stroke-dashoffset:0;stroke-opacity:1"
             d="m -132.07523,51.752841 -12.27725,-7.088277"
             id="path6449"
             inkscape:connector-curvature="0" />
          <path
             inkscape:connector-curvature="0"
             id="path6451"
             d="m -132.14608,55.150471 -12.27725,7.088277"
             style="fill:none;stroke:#000000;stroke-width:0.79374999;stroke-linecap:round;stroke-linejoin:miter;stroke-miterlimit:4;stroke-dasharray:3.17500001, 6.35000002;stroke-dashoffset:0;stroke-opacity:1" />
          <path
             style="fill:none;stroke:#000000;stroke-width:0.79374999;stroke-linecap:round;stroke-linejoin:miter;stroke-miterlimit:4;stroke-dasharray:3.17500001, 6.35000002;stroke-dashoffset:0;stroke-opacity:1"
             d="m -132.18834,53.45165 -14.17655,3e-6"
             id="path6453"
             inkscape:connector-curvature="0" />
        </g>
      </g>
      <rect
         style="opacity:0.51999996;fill:#dbaf00;fill-opacity:1;stroke:none;stroke-width:0.26865107"
         id="rect6489"
         width="29.899023"
         height="29.899023"
         x="10.995677"
         y="231.26926"
         ry="3.7530153" />
    </g>
  </g>
</svg>
